%YAML 1.1
%TAG !u! tag:unity3d.com,2011:
--- !u!29 &1
OcclusionCullingSettings:
  m_ObjectHideFlags: 0
  serializedVersion: 2
  m_OcclusionBakeSettings:
    smallestOccluder: 5
    smallestHole: 0.25
    backfaceThreshold: 100
  m_SceneGUID: 00000000000000000000000000000000
  m_OcclusionCullingData: {fileID: 0}
--- !u!104 &2
RenderSettings:
  m_ObjectHideFlags: 0
  serializedVersion: 9
  m_Fog: 0
  m_FogColor: {r: 0.5, g: 0.5, b: 0.5, a: 1}
  m_FogMode: 3
  m_FogDensity: 0.01
  m_LinearFogStart: 0
  m_LinearFogEnd: 300
  m_AmbientSkyColor: {r: 0.212, g: 0.227, b: 0.259, a: 1}
  m_AmbientEquatorColor: {r: 0.114, g: 0.125, b: 0.133, a: 1}
  m_AmbientGroundColor: {r: 0.047, g: 0.043, b: 0.035, a: 1}
  m_AmbientIntensity: 1
  m_AmbientMode: 0
  m_SubtractiveShadowColor: {r: 0.42, g: 0.478, b: 0.627, a: 1}
  m_SkyboxMaterial: {fileID: 10304, guid: 0000000000000000f000000000000000, type: 0}
  m_HaloStrength: 0.5
  m_FlareStrength: 1
  m_FlareFadeSpeed: 3
  m_HaloTexture: {fileID: 0}
  m_SpotCookie: {fileID: 10001, guid: 0000000000000000e000000000000000, type: 0}
  m_DefaultReflectionMode: 0
  m_DefaultReflectionResolution: 128
  m_ReflectionBounces: 1
  m_ReflectionIntensity: 1
  m_CustomReflection: {fileID: 0}
  m_Sun: {fileID: 0}
  m_IndirectSpecularColor: {r: 0.12731749, g: 0.13414757, b: 0.1210787, a: 1}
  m_UseRadianceAmbientProbe: 0
--- !u!157 &3
LightmapSettings:
  m_ObjectHideFlags: 0
  serializedVersion: 12
  m_GIWorkflowMode: 1
  m_GISettings:
    serializedVersion: 2
    m_BounceScale: 1
    m_IndirectOutputScale: 1
    m_AlbedoBoost: 1
    m_EnvironmentLightingMode: 0
    m_EnableBakedLightmaps: 1
    m_EnableRealtimeLightmaps: 0
  m_LightmapEditorSettings:
    serializedVersion: 12
    m_Resolution: 2
    m_BakeResolution: 40
    m_AtlasSize: 1024
    m_AO: 0
    m_AOMaxDistance: 1
    m_CompAOExponent: 1
    m_CompAOExponentDirect: 0
    m_ExtractAmbientOcclusion: 0
    m_Padding: 2
    m_LightmapParameters: {fileID: 0}
    m_LightmapsBakeMode: 1
    m_TextureCompression: 1
    m_FinalGather: 0
    m_FinalGatherFiltering: 1
    m_FinalGatherRayCount: 256
    m_ReflectionCompression: 2
    m_MixedBakeMode: 2
    m_BakeBackend: 1
    m_PVRSampling: 1
    m_PVRDirectSampleCount: 32
    m_PVRSampleCount: 512
    m_PVRBounces: 2
    m_PVREnvironmentSampleCount: 256
    m_PVREnvironmentReferencePointCount: 2048
    m_PVRFilteringMode: 1
    m_PVRDenoiserTypeDirect: 1
    m_PVRDenoiserTypeIndirect: 1
    m_PVRDenoiserTypeAO: 1
    m_PVRFilterTypeDirect: 0
    m_PVRFilterTypeIndirect: 0
    m_PVRFilterTypeAO: 0
    m_PVREnvironmentMIS: 1
    m_PVRCulling: 1
    m_PVRFilteringGaussRadiusDirect: 1
    m_PVRFilteringGaussRadiusIndirect: 5
    m_PVRFilteringGaussRadiusAO: 2
    m_PVRFilteringAtrousPositionSigmaDirect: 0.5
    m_PVRFilteringAtrousPositionSigmaIndirect: 2
    m_PVRFilteringAtrousPositionSigmaAO: 1
    m_ExportTrainingData: 0
    m_TrainingDataDestination: TrainingData
    m_LightProbeSampleCountMultiplier: 4
  m_LightingDataAsset: {fileID: 0}
  m_LightingSettings: {fileID: 0}
--- !u!196 &4
NavMeshSettings:
  serializedVersion: 2
  m_ObjectHideFlags: 0
  m_BuildSettings:
    serializedVersion: 2
    agentTypeID: 0
    agentRadius: 0.5
    agentHeight: 2
    agentSlope: 45
    agentClimb: 0.4
    ledgeDropHeight: 0
    maxJumpAcrossDistance: 0
    minRegionArea: 2
    manualCellSize: 0
    cellSize: 0.16666667
    manualTileSize: 0
    tileSize: 256
    accuratePlacement: 0
    maxJobWorkers: 0
    preserveTilesOutsideBounds: 0
    debug:
      m_Flags: 0
  m_NavMeshData: {fileID: 0}
--- !u!1001 &63453183
PrefabInstance:
  m_ObjectHideFlags: 0
  serializedVersion: 2
  m_Modification:
    m_TransformParent: {fileID: 0}
    m_Modifications:
    - target: {fileID: 1315165798872801533, guid: b48892dce0251a643b03019786159ec8, type: 3}
      propertyPath: m_Name
      value: Cube (1)
      objectReference: {fileID: 0}
    - target: {fileID: 3062125771653987491, guid: b48892dce0251a643b03019786159ec8, type: 3}
      propertyPath: m_RootOrder
      value: 4
      objectReference: {fileID: 0}
    - target: {fileID: 3062125771653987491, guid: b48892dce0251a643b03019786159ec8, type: 3}
      propertyPath: m_LocalScale.x
      value: 2.6453447
      objectReference: {fileID: 0}
    - target: {fileID: 3062125771653987491, guid: b48892dce0251a643b03019786159ec8, type: 3}
      propertyPath: m_LocalPosition.x
      value: 1.1
      objectReference: {fileID: 0}
    - target: {fileID: 3062125771653987491, guid: b48892dce0251a643b03019786159ec8, type: 3}
      propertyPath: m_LocalPosition.y
      value: 2.05
      objectReference: {fileID: 0}
    - target: {fileID: 3062125771653987491, guid: b48892dce0251a643b03019786159ec8, type: 3}
      propertyPath: m_LocalPosition.z
      value: -4.781423
      objectReference: {fileID: 0}
    - target: {fileID: 3062125771653987491, guid: b48892dce0251a643b03019786159ec8, type: 3}
      propertyPath: m_LocalRotation.w
      value: 0.7076104
      objectReference: {fileID: 0}
    - target: {fileID: 3062125771653987491, guid: b48892dce0251a643b03019786159ec8, type: 3}
      propertyPath: m_LocalRotation.x
      value: -0
      objectReference: {fileID: 0}
    - target: {fileID: 3062125771653987491, guid: b48892dce0251a643b03019786159ec8, type: 3}
      propertyPath: m_LocalRotation.y
      value: 0.7066029
      objectReference: {fileID: 0}
    - target: {fileID: 3062125771653987491, guid: b48892dce0251a643b03019786159ec8, type: 3}
      propertyPath: m_LocalRotation.z
      value: -0
      objectReference: {fileID: 0}
    - target: {fileID: 3062125771653987491, guid: b48892dce0251a643b03019786159ec8, type: 3}
      propertyPath: m_LocalEulerAnglesHint.x
      value: 0
      objectReference: {fileID: 0}
    - target: {fileID: 3062125771653987491, guid: b48892dce0251a643b03019786159ec8, type: 3}
      propertyPath: m_LocalEulerAnglesHint.y
      value: 89.918
      objectReference: {fileID: 0}
    - target: {fileID: 3062125771653987491, guid: b48892dce0251a643b03019786159ec8, type: 3}
      propertyPath: m_LocalEulerAnglesHint.z
      value: 0
      objectReference: {fileID: 0}
    m_RemovedComponents: []
  m_SourcePrefab: {fileID: 100100000, guid: b48892dce0251a643b03019786159ec8, type: 3}
--- !u!1001 &4346509213517657089
PrefabInstance:
  m_ObjectHideFlags: 0
  serializedVersion: 2
  m_Modification:
    m_TransformParent: {fileID: 0}
    m_Modifications:
    - target: {fileID: 2579702390056994383, guid: 6d6b71b27c164cc449a8447be1f69915, type: 3}
      propertyPath: m_RootOrder
      value: 0
      objectReference: {fileID: 0}
    - target: {fileID: 2579702390056994383, guid: 6d6b71b27c164cc449a8447be1f69915, type: 3}
      propertyPath: m_LocalPosition.x
      value: -1.795
      objectReference: {fileID: 0}
    - target: {fileID: 2579702390056994383, guid: 6d6b71b27c164cc449a8447be1f69915, type: 3}
      propertyPath: m_LocalPosition.y
      value: 2.143705
      objectReference: {fileID: 0}
    - target: {fileID: 2579702390056994383, guid: 6d6b71b27c164cc449a8447be1f69915, type: 3}
      propertyPath: m_LocalPosition.z
      value: -5.2921968
      objectReference: {fileID: 0}
    - target: {fileID: 2579702390056994383, guid: 6d6b71b27c164cc449a8447be1f69915, type: 3}
      propertyPath: m_LocalRotation.w
      value: 1
      objectReference: {fileID: 0}
    - target: {fileID: 2579702390056994383, guid: 6d6b71b27c164cc449a8447be1f69915, type: 3}
      propertyPath: m_LocalRotation.x
      value: 0
      objectReference: {fileID: 0}
    - target: {fileID: 2579702390056994383, guid: 6d6b71b27c164cc449a8447be1f69915, type: 3}
      propertyPath: m_LocalRotation.y
      value: 0
      objectReference: {fileID: 0}
    - target: {fileID: 2579702390056994383, guid: 6d6b71b27c164cc449a8447be1f69915, type: 3}
      propertyPath: m_LocalRotation.z
      value: 0
      objectReference: {fileID: 0}
    - target: {fileID: 2579702390056994383, guid: 6d6b71b27c164cc449a8447be1f69915, type: 3}
      propertyPath: m_LocalEulerAnglesHint.x
      value: 0
      objectReference: {fileID: 0}
    - target: {fileID: 2579702390056994383, guid: 6d6b71b27c164cc449a8447be1f69915, type: 3}
      propertyPath: m_LocalEulerAnglesHint.y
      value: 0
      objectReference: {fileID: 0}
    - target: {fileID: 2579702390056994383, guid: 6d6b71b27c164cc449a8447be1f69915, type: 3}
      propertyPath: m_LocalEulerAnglesHint.z
      value: 0
      objectReference: {fileID: 0}
    - target: {fileID: 7153213381018937241, guid: 6d6b71b27c164cc449a8447be1f69915, type: 3}
      propertyPath: m_Name
      value: Sphere
      objectReference: {fileID: 0}
    m_RemovedComponents: []
  m_SourcePrefab: {fileID: 100100000, guid: 6d6b71b27c164cc449a8447be1f69915, type: 3}
--- !u!1001 &4487603697405243932
PrefabInstance:
  m_ObjectHideFlags: 0
  serializedVersion: 2
  m_Modification:
    m_TransformParent: {fileID: 0}
    m_Modifications:
    - target: {fileID: 983661238586199043, guid: 362b6b42a80877e4bbd0d003a9eef4fc, type: 3}
      propertyPath: m_RootOrder
      value: 2
      objectReference: {fileID: 0}
    - target: {fileID: 983661238586199043, guid: 362b6b42a80877e4bbd0d003a9eef4fc, type: 3}
      propertyPath: m_LocalPosition.x
      value: -5.1
      objectReference: {fileID: 0}
    - target: {fileID: 983661238586199043, guid: 362b6b42a80877e4bbd0d003a9eef4fc, type: 3}
      propertyPath: m_LocalPosition.y
      value: 2.1
      objectReference: {fileID: 0}
    - target: {fileID: 983661238586199043, guid: 362b6b42a80877e4bbd0d003a9eef4fc, type: 3}
      propertyPath: m_LocalPosition.z
      value: -5.2921968
      objectReference: {fileID: 0}
    - target: {fileID: 983661238586199043, guid: 362b6b42a80877e4bbd0d003a9eef4fc, type: 3}
      propertyPath: m_LocalRotation.w
      value: 1
      objectReference: {fileID: 0}
    - target: {fileID: 983661238586199043, guid: 362b6b42a80877e4bbd0d003a9eef4fc, type: 3}
      propertyPath: m_LocalRotation.x
      value: 0
      objectReference: {fileID: 0}
    - target: {fileID: 983661238586199043, guid: 362b6b42a80877e4bbd0d003a9eef4fc, type: 3}
      propertyPath: m_LocalRotation.y
      value: 0
      objectReference: {fileID: 0}
    - target: {fileID: 983661238586199043, guid: 362b6b42a80877e4bbd0d003a9eef4fc, type: 3}
      propertyPath: m_LocalRotation.z
      value: 0
      objectReference: {fileID: 0}
    - target: {fileID: 983661238586199043, guid: 362b6b42a80877e4bbd0d003a9eef4fc, type: 3}
      propertyPath: m_LocalEulerAnglesHint.x
      value: 0
      objectReference: {fileID: 0}
    - target: {fileID: 983661238586199043, guid: 362b6b42a80877e4bbd0d003a9eef4fc, type: 3}
      propertyPath: m_LocalEulerAnglesHint.y
      value: 0
      objectReference: {fileID: 0}
    - target: {fileID: 983661238586199043, guid: 362b6b42a80877e4bbd0d003a9eef4fc, type: 3}
      propertyPath: m_LocalEulerAnglesHint.z
      value: 0
      objectReference: {fileID: 0}
    - target: {fileID: 985207161502295008, guid: 362b6b42a80877e4bbd0d003a9eef4fc, type: 3}
      propertyPath: m_Name
      value: Cylinder
      objectReference: {fileID: 0}
    m_RemovedComponents: []
  m_SourcePrefab: {fileID: 100100000, guid: 362b6b42a80877e4bbd0d003a9eef4fc, type: 3}
--- !u!1001 &5484575317341656575
PrefabInstance:
  m_ObjectHideFlags: 0
  serializedVersion: 2
  m_Modification:
    m_TransformParent: {fileID: 0}
    m_Modifications:
    - target: {fileID: 2480865447990094861, guid: 46bdc23969acf69419c44d4452625a74, type: 3}
      propertyPath: m_Name
      value: Capsule
      objectReference: {fileID: 0}
    - target: {fileID: 9126631214471422888, guid: 46bdc23969acf69419c44d4452625a74, type: 3}
      propertyPath: m_RootOrder
      value: 1
      objectReference: {fileID: 0}
    - target: {fileID: 9126631214471422888, guid: 46bdc23969acf69419c44d4452625a74, type: 3}
      propertyPath: m_LocalPosition.x
      value: -3.45
      objectReference: {fileID: 0}
    - target: {fileID: 9126631214471422888, guid: 46bdc23969acf69419c44d4452625a74, type: 3}
      propertyPath: m_LocalPosition.y
      value: 2.067
      objectReference: {fileID: 0}
    - target: {fileID: 9126631214471422888, guid: 46bdc23969acf69419c44d4452625a74, type: 3}
      propertyPath: m_LocalPosition.z
      value: -5.2921968
      objectReference: {fileID: 0}
    - target: {fileID: 9126631214471422888, guid: 46bdc23969acf69419c44d4452625a74, type: 3}
      propertyPath: m_LocalRotation.w
      value: 1
      objectReference: {fileID: 0}
    - target: {fileID: 9126631214471422888, guid: 46bdc23969acf69419c44d4452625a74, type: 3}
      propertyPath: m_LocalRotation.x
      value: 0
      objectReference: {fileID: 0}
    - target: {fileID: 9126631214471422888, guid: 46bdc23969acf69419c44d4452625a74, type: 3}
      propertyPath: m_LocalRotation.y
      value: 0
      objectReference: {fileID: 0}
    - target: {fileID: 9126631214471422888, guid: 46bdc23969acf69419c44d4452625a74, type: 3}
      propertyPath: m_LocalRotation.z
      value: 0
      objectReference: {fileID: 0}
    - target: {fileID: 9126631214471422888, guid: 46bdc23969acf69419c44d4452625a74, type: 3}
      propertyPath: m_LocalEulerAnglesHint.x
      value: 0
      objectReference: {fileID: 0}
    - target: {fileID: 9126631214471422888, guid: 46bdc23969acf69419c44d4452625a74, type: 3}
      propertyPath: m_LocalEulerAnglesHint.y
      value: 0
      objectReference: {fileID: 0}
    - target: {fileID: 9126631214471422888, guid: 46bdc23969acf69419c44d4452625a74, type: 3}
      propertyPath: m_LocalEulerAnglesHint.z
      value: 0
      objectReference: {fileID: 0}
    m_RemovedComponents: []
  m_SourcePrefab: {fileID: 100100000, guid: 46bdc23969acf69419c44d4452625a74, type: 3}
--- !u!1001 &6445887602989203016
PrefabInstance:
  m_ObjectHideFlags: 0
  serializedVersion: 2
  m_Modification:
    m_TransformParent: {fileID: 0}
    m_Modifications:
    - target: {fileID: 1315165798872801533, guid: b48892dce0251a643b03019786159ec8, type: 3}
      propertyPath: m_Name
      value: Cube
      objectReference: {fileID: 0}
    - target: {fileID: 3062125771653987491, guid: b48892dce0251a643b03019786159ec8, type: 3}
      propertyPath: m_RootOrder
      value: 3
      objectReference: {fileID: 0}
    - target: {fileID: 3062125771653987491, guid: b48892dce0251a643b03019786159ec8, type: 3}
      propertyPath: m_LocalScale.x
      value: 0.61
      objectReference: {fileID: 0}
    - target: {fileID: 3062125771653987491, guid: b48892dce0251a643b03019786159ec8, type: 3}
      propertyPath: m_LocalScale.y
      value: 1
      objectReference: {fileID: 0}
    - target: {fileID: 3062125771653987491, guid: b48892dce0251a643b03019786159ec8, type: 3}
      propertyPath: m_LocalPosition.x
      value: -0.21257
      objectReference: {fileID: 0}
    - target: {fileID: 3062125771653987491, guid: b48892dce0251a643b03019786159ec8, type: 3}
      propertyPath: m_LocalPosition.y
      value: 2.069342
      objectReference: {fileID: 0}
    - target: {fileID: 3062125771653987491, guid: b48892dce0251a643b03019786159ec8, type: 3}
      propertyPath: m_LocalPosition.z
      value: -4.781423
      objectReference: {fileID: 0}
    - target: {fileID: 3062125771653987491, guid: b48892dce0251a643b03019786159ec8, type: 3}
      propertyPath: m_LocalRotation.w
      value: 0.7065754
      objectReference: {fileID: 0}
    - target: {fileID: 3062125771653987491, guid: b48892dce0251a643b03019786159ec8, type: 3}
      propertyPath: m_LocalRotation.x
      value: -0
      objectReference: {fileID: 0}
    - target: {fileID: 3062125771653987491, guid: b48892dce0251a643b03019786159ec8, type: 3}
      propertyPath: m_LocalRotation.y
      value: 0.70763785
      objectReference: {fileID: 0}
    - target: {fileID: 3062125771653987491, guid: b48892dce0251a643b03019786159ec8, type: 3}
      propertyPath: m_LocalRotation.z
      value: -0
      objectReference: {fileID: 0}
    - target: {fileID: 3062125771653987491, guid: b48892dce0251a643b03019786159ec8, type: 3}
      propertyPath: m_LocalEulerAnglesHint.x
      value: 0
      objectReference: {fileID: 0}
    - target: {fileID: 3062125771653987491, guid: b48892dce0251a643b03019786159ec8, type: 3}
      propertyPath: m_LocalEulerAnglesHint.y
      value: 90.086
      objectReference: {fileID: 0}
    - target: {fileID: 3062125771653987491, guid: b48892dce0251a643b03019786159ec8, type: 3}
      propertyPath: m_LocalEulerAnglesHint.z
      value: 0
      objectReference: {fileID: 0}
    m_RemovedComponents: []
  m_SourcePrefab: {fileID: 100100000, guid: b48892dce0251a643b03019786159ec8, type: 3}
